Bechdel
…
In order to evaluate how return on investment varies among movies that pass and fail the Bechdel test, weâ€™l first create a new variable called roi as the ratio of the gross to budget.

bechdel90_13 <- bechdel90_13 %>%
  mutate(roi = intgross_2013 / domgross_2013)

Letâ€™s see which movies have the highest return on investment.

bechdel90_13 %>%
  arrange(desc(roi)) %>% 
  select(title, clean_test, binary, roi, budget_2013, intgross_2013)

## # A tibble: 1,615 x 6
##    title                 clean_test binary    roi budget_2013 intgross_2013
##    <chr>                 <ord>      <chr>   <dbl>       <int>         <dbl>
##  1 Tropa de Elite        ok         PASS   1638.      7345604      16088238
##  2 St. Trinian's         ok         PASS   1496.     12808396      25219695
##  3 Jin ling shi san chai ok         PASS    301.    103569079      97066426
##  4 Chinjeolhan geumjassi ok         PASS    111.      5368649      28002720
##  5 Che: Part One         notalk     FAIL    103.     62770866      32595998
##  6 Shaolin Soccer        nowomen    FAIL     87.5    13158460      56286669
##  7 Mononoke-hime         ok         PASS     63.3    29024763     218193652
##  8 Agora                 notalk     FAIL     62.9    76001212      42335163
##  9 Perfume: The Story oâ€¦ ok         PASS     60.1    73624227     154418394
## 10 Centurion             notalk     FAIL     53.6    16023478       7075508
## # â€¦ with 1,605 more rows
…
